<?xml version="1.0" encoding="UTF-8"?>
<svg xmlns="http://www.w3.org/2000/svg" xmlns:xlink="http://www.w3.org/1999/xlink" width="239.924pt" height="239.924pt" viewBox="0 0 239.924 239.924" version="1.1">
<defs>
<g>
<symbol overflow="visible" id="glyph0-0">
<path style="stroke:none;" d=""/>
</symbol>
<symbol overflow="visible" id="glyph0-1">
<path style="stroke:none;" d="M 0.875 -0.59375 C 0.84375 -0.4375 0.78125 -0.203125 0.78125 -0.15625 C 0.78125 0.015625 0.921875 0.109375 1.078125 0.109375 C 1.203125 0.109375 1.375 0.03125 1.453125 -0.171875 C 1.46875 -0.203125 1.796875 -1.5625 1.84375 -1.75 C 1.921875 -2.078125 2.109375 -2.765625 2.15625 -3.046875 C 2.203125 -3.171875 2.484375 -3.640625 2.71875 -3.859375 C 2.796875 -3.921875 3.09375 -4.1875 3.515625 -4.1875 C 3.78125 -4.1875 3.921875 -4.0625 3.9375 -4.0625 C 3.640625 -4.015625 3.421875 -3.78125 3.421875 -3.515625 C 3.421875 -3.359375 3.53125 -3.171875 3.796875 -3.171875 C 4.0625 -3.171875 4.34375 -3.40625 4.34375 -3.765625 C 4.34375 -4.109375 4.03125 -4.40625 3.515625 -4.40625 C 2.875 -4.40625 2.4375 -3.921875 2.25 -3.640625 C 2.15625 -4.09375 1.796875 -4.40625 1.328125 -4.40625 C 0.875 -4.40625 0.6875 -4.015625 0.59375 -3.84375 C 0.421875 -3.5 0.296875 -2.90625 0.296875 -2.875 C 0.296875 -2.765625 0.390625 -2.765625 0.40625 -2.765625 C 0.515625 -2.765625 0.515625 -2.78125 0.578125 -3 C 0.75 -3.703125 0.953125 -4.1875 1.3125 -4.1875 C 1.46875 -4.1875 1.609375 -4.109375 1.609375 -3.734375 C 1.609375 -3.515625 1.578125 -3.40625 1.453125 -2.890625 Z M 0.875 -0.59375 "/>
</symbol>
<symbol overflow="visible" id="glyph0-2">
<path style="stroke:none;" d="M 3.71875 -3.765625 C 3.53125 -4.140625 3.25 -4.40625 2.796875 -4.40625 C 1.640625 -4.40625 0.40625 -2.9375 0.40625 -1.484375 C 0.40625 -0.546875 0.953125 0.109375 1.71875 0.109375 C 1.921875 0.109375 2.421875 0.0625 3.015625 -0.640625 C 3.09375 -0.21875 3.453125 0.109375 3.921875 0.109375 C 4.28125 0.109375 4.5 -0.125 4.671875 -0.4375 C 4.828125 -0.796875 4.96875 -1.40625 4.96875 -1.421875 C 4.96875 -1.53125 4.875 -1.53125 4.84375 -1.53125 C 4.75 -1.53125 4.734375 -1.484375 4.703125 -1.34375 C 4.53125 -0.703125 4.359375 -0.109375 3.953125 -0.109375 C 3.671875 -0.109375 3.65625 -0.375 3.65625 -0.5625 C 3.65625 -0.78125 3.671875 -0.875 3.78125 -1.3125 C 3.890625 -1.71875 3.90625 -1.828125 4 -2.203125 L 4.359375 -3.59375 C 4.421875 -3.875 4.421875 -3.890625 4.421875 -3.9375 C 4.421875 -4.109375 4.3125 -4.203125 4.140625 -4.203125 C 3.890625 -4.203125 3.75 -3.984375 3.71875 -3.765625 Z M 3.078125 -1.1875 C 3.015625 -1 3.015625 -0.984375 2.875 -0.8125 C 2.4375 -0.265625 2.03125 -0.109375 1.75 -0.109375 C 1.25 -0.109375 1.109375 -0.65625 1.109375 -1.046875 C 1.109375 -1.546875 1.421875 -2.765625 1.65625 -3.234375 C 1.96875 -3.8125 2.40625 -4.1875 2.8125 -4.1875 C 3.453125 -4.1875 3.59375 -3.375 3.59375 -3.3125 C 3.59375 -3.25 3.578125 -3.1875 3.5625 -3.140625 Z M 3.078125 -1.1875 "/>
</symbol>
<symbol overflow="visible" id="glyph0-3">
<path style="stroke:none;" d="M 1.859375 -2.296875 C 2.15625 -2.296875 2.890625 -2.328125 3.390625 -2.53125 C 4.09375 -2.828125 4.140625 -3.421875 4.140625 -3.5625 C 4.140625 -4 3.765625 -4.40625 3.078125 -4.40625 C 1.96875 -4.40625 0.453125 -3.4375 0.453125 -1.6875 C 0.453125 -0.671875 1.046875 0.109375 2.03125 0.109375 C 3.453125 0.109375 4.28125 -0.953125 4.28125 -1.0625 C 4.28125 -1.125 4.234375 -1.203125 4.171875 -1.203125 C 4.109375 -1.203125 4.09375 -1.171875 4.03125 -1.09375 C 3.25 -0.109375 2.15625 -0.109375 2.046875 -0.109375 C 1.265625 -0.109375 1.171875 -0.953125 1.171875 -1.265625 C 1.171875 -1.390625 1.1875 -1.6875 1.328125 -2.296875 Z M 1.390625 -2.515625 C 1.78125 -4.03125 2.8125 -4.1875 3.078125 -4.1875 C 3.53125 -4.1875 3.8125 -3.890625 3.8125 -3.5625 C 3.8125 -2.515625 2.21875 -2.515625 1.796875 -2.515625 Z M 1.390625 -2.515625 "/>
</symbol>
<symbol overflow="visible" id="glyph0-4">
<path style="stroke:none;" d="M 3.484375 -0.5625 C 3.59375 -0.15625 3.953125 0.109375 4.375 0.109375 C 4.71875 0.109375 4.953125 -0.125 5.109375 -0.4375 C 5.28125 -0.796875 5.40625 -1.40625 5.40625 -1.421875 C 5.40625 -1.53125 5.328125 -1.53125 5.296875 -1.53125 C 5.1875 -1.53125 5.1875 -1.484375 5.15625 -1.34375 C 5.015625 -0.78125 4.828125 -0.109375 4.40625 -0.109375 C 4.203125 -0.109375 4.09375 -0.234375 4.09375 -0.5625 C 4.09375 -0.78125 4.21875 -1.25 4.296875 -1.609375 L 4.578125 -2.6875 C 4.609375 -2.828125 4.703125 -3.203125 4.75 -3.359375 C 4.796875 -3.59375 4.890625 -3.96875 4.890625 -4.03125 C 4.890625 -4.203125 4.75 -4.296875 4.609375 -4.296875 C 4.5625 -4.296875 4.296875 -4.28125 4.21875 -3.953125 C 4.03125 -3.21875 3.59375 -1.46875 3.46875 -0.953125 C 3.453125 -0.90625 3.0625 -0.109375 2.328125 -0.109375 C 1.8125 -0.109375 1.71875 -0.5625 1.71875 -0.921875 C 1.71875 -1.484375 2 -2.265625 2.25 -2.953125 C 2.375 -3.265625 2.421875 -3.40625 2.421875 -3.59375 C 2.421875 -4.03125 2.109375 -4.40625 1.609375 -4.40625 C 0.65625 -4.40625 0.296875 -2.953125 0.296875 -2.875 C 0.296875 -2.765625 0.390625 -2.765625 0.40625 -2.765625 C 0.515625 -2.765625 0.515625 -2.796875 0.5625 -2.953125 C 0.8125 -3.8125 1.203125 -4.1875 1.578125 -4.1875 C 1.671875 -4.1875 1.828125 -4.171875 1.828125 -3.859375 C 1.828125 -3.625 1.71875 -3.328125 1.65625 -3.1875 C 1.28125 -2.1875 1.078125 -1.578125 1.078125 -1.09375 C 1.078125 -0.140625 1.765625 0.109375 2.296875 0.109375 C 2.953125 0.109375 3.3125 -0.34375 3.484375 -0.5625 Z M 3.484375 -0.5625 "/>
</symbol>
<symbol overflow="visible" id="glyph1-0">
<path style="stroke:none;" d=""/>
</symbol>
<symbol overflow="visible" id="glyph1-1">
<path style="stroke:none;" d="M 3.21875 -1.578125 L 5.359375 -1.578125 C 5.453125 -1.578125 5.609375 -1.578125 5.609375 -1.734375 C 5.609375 -1.921875 5.453125 -1.921875 5.359375 -1.921875 L 3.21875 -1.921875 L 3.21875 -4.0625 C 3.21875 -4.140625 3.21875 -4.3125 3.0625 -4.3125 C 2.890625 -4.3125 2.890625 -4.15625 2.890625 -4.0625 L 2.890625 -1.921875 L 0.75 -1.921875 C 0.65625 -1.921875 0.484375 -1.921875 0.484375 -1.75 C 0.484375 -1.578125 0.640625 -1.578125 0.75 -1.578125 L 2.890625 -1.578125 L 2.890625 0.5625 C 2.890625 0.65625 2.890625 0.828125 3.046875 0.828125 C 3.21875 0.828125 3.21875 0.65625 3.21875 0.5625 Z M 3.21875 -1.578125 "/>
</symbol>
<symbol overflow="visible" id="glyph2-0">
<path style="stroke:none;" d=""/>
</symbol>
<symbol overflow="visible" id="glyph2-1">
<path style="stroke:none;" d="M 5.1875 -1.578125 C 5.296875 -1.578125 5.46875 -1.578125 5.46875 -1.734375 C 5.46875 -1.921875 5.296875 -1.921875 5.1875 -1.921875 L 1.03125 -1.921875 C 0.921875 -1.921875 0.75 -1.921875 0.75 -1.75 C 0.75 -1.578125 0.90625 -1.578125 1.03125 -1.578125 Z M 5.1875 -1.578125 "/>
</symbol>
</g>
<clipPath id="clip1">
  <path d="M 0 22 L 239.925781 22 L 239.925781 218 L 0 218 Z M 0 22 "/>
</clipPath>
<clipPath id="clip2">
  <path d="M 0 119 L 239.925781 119 L 239.925781 121 L 0 121 Z M 0 119 "/>
</clipPath>
<clipPath id="clip3">
  <path d="M 236 115 L 239.925781 115 L 239.925781 119 L 236 119 Z M 236 115 "/>
</clipPath>
<clipPath id="clip4">
  <path d="M 236 121 L 239.925781 121 L 239.925781 125 L 236 125 Z M 236 121 "/>
</clipPath>
</defs>
<g id="surface1">
<path style="fill:none;stroke-width:0.99628;stroke-linecap:butt;stroke-linejoin:miter;stroke:rgb(0%,0%,0%);stroke-opacity:1;stroke-miterlimit:10;" d="M 73.70125 -0.0005 C 73.70125 30.526844 40.705156 55.276844 -0.001875 55.276844 C -40.705 55.276844 -73.701094 30.526844 -73.701094 -0.0005 C -73.701094 -30.527844 -40.705 -55.273938 -0.001875 -55.273938 C 40.705156 -55.273938 73.70125 -30.527844 73.70125 -0.0005 Z M 73.70125 -0.0005 " transform="matrix(1,0,0,-1,88.455,93.062)"/>
<path style="fill:none;stroke-width:0.99628;stroke-linecap:butt;stroke-linejoin:miter;stroke:rgb(0%,0%,0%);stroke-opacity:1;stroke-miterlimit:10;" d="M 122.529375 -0.0005 C 122.529375 20.351062 101.904375 36.851062 76.462969 36.851062 C 51.025469 36.851062 30.400469 20.351062 30.400469 -0.0005 C 30.400469 -20.352063 51.025469 -36.852063 76.462969 -36.852063 C 101.904375 -36.852063 122.529375 -20.352063 122.529375 -0.0005 Z M 122.529375 -0.0005 " transform="matrix(1,0,0,-1,88.455,93.062)"/>
<path style="fill:none;stroke-width:0.3985;stroke-linecap:butt;stroke-linejoin:miter;stroke:rgb(0%,0%,0%);stroke-opacity:1;stroke-miterlimit:10;" d="M -46.247969 43.116687 L 107.970781 -26.902844 " transform="matrix(1,0,0,-1,88.455,93.062)"/>
<path style="fill:none;stroke-width:0.3985;stroke-linecap:butt;stroke-linejoin:miter;stroke:rgb(0%,0%,69.999695%);stroke-opacity:1;stroke-miterlimit:10;" d="M -71.708906 -2.762219 L 120.537188 -2.762219 " transform="matrix(1,0,0,-1,88.455,93.062)"/>
<path style=" stroke:none;fill-rule:nonzero;fill:rgb(0%,0%,69.999695%);fill-opacity:1;" d="M 14.753906 95.824219 L 17.941406 97.417969 L 16.746094 95.824219 L 17.941406 94.230469 "/>
<path style=" stroke:none;fill-rule:nonzero;fill:rgb(0%,0%,69.999695%);fill-opacity:1;" d="M 210.984375 95.824219 L 207.792969 94.230469 L 208.992188 95.824219 L 207.792969 97.417969 "/>
<g style="fill:rgb(0%,0%,69.999695%);fill-opacity:1;">
  <use xlink:href="#glyph0-1" x="58.257" y="101.808"/>
</g>
<g style="fill:rgb(0%,0%,69.999695%);fill-opacity:1;">
  <use xlink:href="#glyph1-1" x="62.752" y="103.303"/>
</g>
<path style="fill:none;stroke-width:0.3985;stroke-linecap:butt;stroke-linejoin:miter;stroke:rgb(0%,0%,69.999695%);stroke-opacity:1;stroke-miterlimit:10;" d="M 32.392656 2.765125 L 71.709063 2.765125 " transform="matrix(1,0,0,-1,88.455,93.062)"/>
<path style=" stroke:none;fill-rule:nonzero;fill:rgb(0%,0%,69.999695%);fill-opacity:1;" d="M 118.855469 90.296875 L 122.042969 91.890625 L 120.847656 90.296875 L 122.042969 88.703125 "/>
<path style=" stroke:none;fill-rule:nonzero;fill:rgb(0%,0%,69.999695%);fill-opacity:1;" d="M 162.15625 90.296875 L 158.96875 88.703125 L 160.164062 90.296875 L 158.96875 91.890625 "/>
<g style="fill:rgb(0%,0%,69.999695%);fill-opacity:1;">
  <use xlink:href="#glyph0-1" x="134.896" y="86.28"/>
</g>
<g style="fill:rgb(0%,0%,69.999695%);fill-opacity:1;">
  <use xlink:href="#glyph2-1" x="139.391" y="87.774"/>
</g>
<g clip-path="url(#clip1)" clip-rule="nonzero">
<path style="fill:none;stroke-width:0.3985;stroke-linecap:butt;stroke-linejoin:miter;stroke:rgb(0%,39.99939%,0%);stroke-opacity:1;stroke-dasharray:2.98883,2.98883;stroke-miterlimit:10;" d="M 151.271563 -26.902844 C 151.271563 23.979969 97.650469 65.226062 31.505938 65.226062 C -34.638594 65.226062 -88.255781 23.979969 -88.255781 -26.902844 C -88.255781 -77.78175 -34.638594 -119.027844 31.505938 -119.027844 C 97.650469 -119.027844 151.271563 -77.78175 151.271563 -26.902844 Z M 151.271563 -26.902844 " transform="matrix(1,0,0,-1,88.455,93.062)"/>
</g>
<path style="fill:none;stroke-width:0.3985;stroke-linecap:butt;stroke-linejoin:miter;stroke:rgb(0%,39.99939%,0%);stroke-opacity:1;stroke-dasharray:0.3985,1.99255;stroke-miterlimit:10;" d="M 151.271563 -26.902844 C 151.271563 39.245594 97.650469 92.862781 31.505938 92.862781 C -34.638594 92.862781 -88.255781 39.245594 -88.255781 -26.902844 C -88.255781 -93.047375 -34.638594 -146.664563 31.505938 -146.664563 C 97.650469 -146.664563 151.271563 -93.047375 151.271563 -26.902844 Z M 151.271563 -26.902844 " transform="matrix(1,0,0,-1,88.455,93.062)"/>
<g clip-path="url(#clip2)" clip-rule="nonzero">
<path style="fill:none;stroke-width:0.3985;stroke-linecap:butt;stroke-linejoin:miter;stroke:rgb(0%,39.99939%,0%);stroke-opacity:1;stroke-dasharray:2.98883,2.98883;stroke-miterlimit:10;" d="M -88.255781 -26.902844 L 151.271563 -26.902844 " transform="matrix(1,0,0,-1,88.455,93.062)"/>
</g>
<path style="fill:none;stroke-width:0.3985;stroke-linecap:butt;stroke-linejoin:miter;stroke:rgb(0%,0%,69.999695%);stroke-opacity:1;stroke-miterlimit:10;" d="M -86.263594 -24.137219 L 105.978594 -24.137219 " transform="matrix(1,0,0,-1,88.455,93.062)"/>
<path style=" stroke:none;fill-rule:nonzero;fill:rgb(0%,0%,69.999695%);fill-opacity:1;" d="M 0.199219 117.199219 L 3.386719 118.792969 L 2.191406 117.199219 L 3.386719 115.605469 "/>
<path style=" stroke:none;fill-rule:nonzero;fill:rgb(0%,0%,69.999695%);fill-opacity:1;" d="M 196.425781 117.199219 L 193.238281 115.605469 L 194.433594 117.199219 L 193.238281 118.792969 "/>
<g style="fill:rgb(0%,0%,69.999695%);fill-opacity:1;">
  <use xlink:href="#glyph0-1" x="92.758" y="113.18"/>
</g>
<g style="fill:rgb(0%,0%,69.999695%);fill-opacity:1;">
  <use xlink:href="#glyph1-1" x="97.253" y="114.674"/>
</g>
<path style="fill:none;stroke-width:0.3985;stroke-linecap:butt;stroke-linejoin:miter;stroke:rgb(0%,0%,69.999695%);stroke-opacity:1;stroke-miterlimit:10;" d="M 109.962969 -24.137219 L 149.279375 -24.137219 " transform="matrix(1,0,0,-1,88.455,93.062)"/>
<path style=" stroke:none;fill-rule:nonzero;fill:rgb(0%,0%,69.999695%);fill-opacity:1;" d="M 196.425781 117.199219 L 199.613281 118.792969 L 198.417969 117.199219 L 199.613281 115.605469 "/>
<g clip-path="url(#clip3)" clip-rule="nonzero">
<path style=" stroke:none;fill-rule:nonzero;fill:rgb(0%,0%,69.999695%);fill-opacity:1;" d="M 239.726562 117.199219 L 236.539062 115.605469 L 237.734375 117.199219 L 236.539062 118.792969 "/>
</g>
<g style="fill:rgb(0%,0%,69.999695%);fill-opacity:1;">
  <use xlink:href="#glyph0-1" x="212.465" y="113.18"/>
</g>
<g style="fill:rgb(0%,0%,69.999695%);fill-opacity:1;">
  <use xlink:href="#glyph2-1" x="216.96" y="114.674"/>
</g>
<path style="fill:none;stroke-width:0.3985;stroke-linecap:butt;stroke-linejoin:miter;stroke:rgb(0%,39.99939%,0%);stroke-opacity:1;stroke-dasharray:2.98883,2.98883;stroke-miterlimit:10;" d="M -46.247969 64.120594 L -46.247969 -26.902844 " transform="matrix(1,0,0,-1,88.455,93.062)"/>
<path style="fill:none;stroke-width:0.3985;stroke-linecap:butt;stroke-linejoin:miter;stroke:rgb(0%,39.99939%,0%);stroke-opacity:1;stroke-dasharray:2.98883,2.98883;stroke-miterlimit:10;" d="M -46.247969 64.120594 L 31.505938 -26.902844 " transform="matrix(1,0,0,-1,88.455,93.062)"/>
<path style="fill:none;stroke-width:0.3985;stroke-linecap:butt;stroke-linejoin:miter;stroke:rgb(0%,39.99939%,0%);stroke-opacity:1;stroke-miterlimit:10;" d="M 33.498125 -29.664563 L 149.279375 -29.664563 " transform="matrix(1,0,0,-1,88.455,93.062)"/>
<path style=" stroke:none;fill-rule:nonzero;fill:rgb(0%,39.99939%,0%);fill-opacity:1;" d="M 119.960938 122.726562 L 123.148438 124.320312 L 121.953125 122.726562 L 123.148438 121.132812 "/>
<g clip-path="url(#clip4)" clip-rule="nonzero">
<path style=" stroke:none;fill-rule:nonzero;fill:rgb(0%,39.99939%,0%);fill-opacity:1;" d="M 239.726562 122.726562 L 236.539062 121.132812 L 237.734375 122.726562 L 236.539062 124.320312 "/>
</g>
<g style="fill:rgb(0%,39.99939%,0%);fill-opacity:1;">
  <use xlink:href="#glyph0-2" x="207.151" y="128.709"/>
</g>
<path style="fill:none;stroke-width:0.3985;stroke-linecap:butt;stroke-linejoin:miter;stroke:rgb(39.99939%,0%,0%);stroke-opacity:1;stroke-miterlimit:10;" d="M 33.498125 -34.086438 L 105.978594 -34.086438 " transform="matrix(1,0,0,-1,88.455,93.062)"/>
<path style=" stroke:none;fill-rule:nonzero;fill:rgb(39.99939%,0%,0%);fill-opacity:1;" d="M 119.960938 127.148438 L 123.148438 128.742188 L 121.953125 127.148438 L 123.148438 125.554688 "/>
<path style=" stroke:none;fill-rule:nonzero;fill:rgb(39.99939%,0%,0%);fill-opacity:1;" d="M 196.425781 127.148438 L 193.238281 125.554688 L 194.433594 127.148438 L 193.238281 128.742188 "/>
<g style="fill:rgb(39.99939%,0%,0%);fill-opacity:1;">
  <use xlink:href="#glyph0-3" x="153.241" y="137.383"/>
  <use xlink:href="#glyph0-2" x="157.879587" y="137.383"/>
</g>
<path style="fill:none;stroke-width:0.3985;stroke-linecap:butt;stroke-linejoin:miter;stroke:rgb(0%,39.99939%,0%);stroke-opacity:1;stroke-miterlimit:10;" d="M 46.248125 -26.902844 C 46.248125 -18.758313 39.646563 -12.160656 31.505938 -12.160656 C 27.955156 -12.160656 24.517656 -13.445813 21.837969 -15.777844 " transform="matrix(1,0,0,-1,88.455,93.062)"/>
<g style="fill:rgb(0%,39.99939%,0%);fill-opacity:1;">
  <use xlink:href="#glyph0-4" x="127.06" y="107.182"/>
</g>
<path style="fill-rule:nonzero;fill:rgb(0%,0%,0%);fill-opacity:1;stroke-width:0.3985;stroke-linecap:butt;stroke-linejoin:miter;stroke:rgb(0%,0%,0%);stroke-opacity:1;stroke-miterlimit:10;" d="M -44.404219 43.116687 C -44.404219 44.132312 -45.228437 44.956531 -46.247969 44.956531 C -47.263594 44.956531 -48.091719 44.132312 -48.091719 43.116687 C -48.091719 42.097156 -47.263594 41.272937 -46.247969 41.272937 C -45.228437 41.272937 -44.404219 42.097156 -44.404219 43.116687 Z M -44.404219 43.116687 " transform="matrix(1,0,0,-1,88.455,93.062)"/>
<path style="fill-rule:nonzero;fill:rgb(0%,0%,0%);fill-opacity:1;stroke-width:0.3985;stroke-linecap:butt;stroke-linejoin:miter;stroke:rgb(0%,0%,0%);stroke-opacity:1;stroke-miterlimit:10;" d="M 109.814531 -26.902844 C 109.814531 -25.883313 108.990313 -25.059094 107.970781 -25.059094 C 106.955156 -25.059094 106.130938 -25.883313 106.130938 -26.902844 C 106.130938 -27.918469 106.955156 -28.742688 107.970781 -28.742688 C 108.990313 -28.742688 109.814531 -27.918469 109.814531 -26.902844 Z M 109.814531 -26.902844 " transform="matrix(1,0,0,-1,88.455,93.062)"/>
<path style="fill-rule:nonzero;fill:rgb(50%,50%,50%);fill-opacity:1;stroke-width:0.3985;stroke-linecap:butt;stroke-linejoin:miter;stroke:rgb(50%,50%,50%);stroke-opacity:1;stroke-miterlimit:10;" d="M 50.67 -0.0005 C 50.67 1.019031 49.845781 1.84325 48.82625 1.84325 C 47.810625 1.84325 46.9825 1.019031 46.9825 -0.0005 C 46.9825 -1.016125 47.810625 -1.84425 48.82625 -1.84425 C 49.845781 -1.84425 50.67 -1.016125 50.67 -0.0005 Z M 50.67 -0.0005 " transform="matrix(1,0,0,-1,88.455,93.062)"/>
<path style="fill-rule:nonzero;fill:rgb(0%,39.99939%,0%);fill-opacity:1;stroke-width:0.3985;stroke-linecap:butt;stroke-linejoin:miter;stroke:rgb(0%,39.99939%,0%);stroke-opacity:1;stroke-miterlimit:10;" d="M 32.427813 -26.902844 C 32.427813 -26.391125 32.017656 -25.980969 31.505938 -25.980969 C 30.998125 -25.980969 30.584063 -26.391125 30.584063 -26.902844 C 30.584063 -27.410656 30.998125 -27.820813 31.505938 -27.820813 C 32.017656 -27.820813 32.427813 -27.410656 32.427813 -26.902844 Z M 32.427813 -26.902844 " transform="matrix(1,0,0,-1,88.455,93.062)"/>
</g>
</svg>
